{
    "name": "laravel/laravel",
    "type": "project",
    "description": "The Laravel Framework.",
    "keywords": [
        "framework",
        "laravel"
    ],
    "license": "MIT",
    "require": {
        "php": "^7.2.5",
        "awobaz/compoships": "^1.1",
        "barryvdh/laravel-snappy": "^0.4.7",
        "elibyy/tcpdf-laravel": "^7.0",
        "fideloper/proxy": "^4.2",
        "fruitcake/laravel-cors": "^1.0",
        "goodnesskay/laravelpdfviewer": "^1.0",
        "guzzlehttp/guzzle": "^6.3",
        "hedii/artisan-log-cleaner": "^3.0",
        "laravel/framework": "^7.0",
        "laravel/passport": "^8.4",
        "laravel/tinker": "^2.0",
        "maatwebsite/excel": "^3.1",
        "milon/barcode": "^7.0",
        "mpdf/mpdf": "^8.0",
        "php-ai/php-ml": "^0.9.0",
        "phpoffice/phpspreadsheet": "^1.12",
        "phpoffice/phpword": "^0.17.0",
        "pusher/pusher-php-server": "^4.1",
        "rap2hpoutre/laravel-log-viewer": "^1.4",
        "setasign/fpdf": "^1.8",
        "setasign/fpdi": "^2.3",
        "spatie/laravel-backup": "^6.11",
        "spatie/pdf-to-image": "^2.0",
        "spatie/pdf-to-text": "^1.3",
        "symfony/process": "^5.1",
        "thiagoalessio/tesseract_ocr": "^2.9",
        "wapnen/google-cloud-vision-php": "dev-master",
        "lcobucci/jwt": "3.3.3"
    },
    "require-dev": {
        "facade/ignition": "^2.0",
        "fzaninotto/faker": "^1.9.1",
        "laravel/dusk": "^6.3",
        "mockery/mockery": "^1.3.1",
        "nunomaduro/collision": "^4.1",
        "phpunit/phpunit": "^8.5"
    },
    "config": {
        "optimize-autoloader": true,
        "preferred-install": "dist",
        "sort-packages": true
    },
    "extra": {
        "laravel": {
            "dont-discover": []
        }
    },
    "autoload": {
        "psr-4": {
            "App\\": "app/"
        },
        "classmap": [
            "database/seeds",
            "database/factories"
        ],
        "files": ["app/Helpers/perintilanFunction.php"]
    },
    "autoload-dev": {
        "psr-4": {
            "Tests\\": "tests/"
        }
    },
    "minimum-stability": "dev",
    "prefer-stable": true,
    "scripts": {
        "post-autoload-dump": [
            "Illuminate\\Foundation\\ComposerScripts::postAutoloadDump",
            "@php artisan package:discover --ansi"
        ],
        "post-root-package-install": [
            "@php -r \"file_exists('.env') || copy('.env.example', '.env');\""
        ],
        "post-create-project-cmd": [
            "@php artisan key:generate --ansi"
        ]
    }
}
